{
    "key": "group_5c5ab40c32dd4",
    "title": "Vis sidebar",
    "fields": [
        {
            "key": "field_5c5ab4196c06a",
            "label": "Vis sidebar?",
            "name": "show_sidebar",
            "type": "true_false",
            "instructions": "Skal sidebaren vises på denne side?",
            "required": 0,
            "conditional_logic": 0,
            "wrapper": {
                "width": "",
                "class": "",
                "id": ""
            },
            "message": "",
            "default_value": 0,
            "ui": 0,
            "ui_on_text": "",
            "ui_off_text": ""
        }
    ],
    "location": [
        [
            {
                "param": "page_template",
                "operator": "==",
                "value": "page-layouts.php"
            }
        ]
    ],
    "menu_order": 0,
    "position": "side",
    "style": "default",
    "label_placement": "top",
    "instruction_placement": "label",
    "hide_on_screen": [
        "the_content"
    ],
    "active": 1,
    "description": "",
    "modified": 1549448290
}