{
    "key": "group_5c6691182418e",
    "title": "Dato",
    "fields": [
        {
            "key": "field_5c66914da6ff0",
            "label": "Dato for arrangement",
            "name": "date",
            "type": "date_picker",
            "instructions": "",
            "required": 0,
            "conditional_logic": 0,
            "wrapper": {
                "width": "",
                "class": "",
                "id": ""
            },
            "display_format": "d.m.Y",
            "return_format": "d.m.Y",
            "first_day": 1
        }
    ],
    "location": [
        [
            {
                "param": "post_category",
                "operator": "==",
                "value": "category:kalender"
            }
        ]
    ],
    "menu_order": 0,
    "position": "normal",
    "style": "default",
    "label_placement": "top",
    "instruction_placement": "label",
    "hide_on_screen": "",
    "active": 1,
    "description": "",
    "modified": 1550225892
}